24060030	KARINA CAHYONO
24070071	PRABAWA ADI WIJAYA
24080094	ALBERTUS DINGGA GALLANT PUTRA
24090126	ABRAM ABISAI PRASETYAWAN
24090133	CHRISTINE PURNOMO
24090134	ARMADYA DANURDARA HADI
24090142	TEOFILUS YASON H
24090147	KESHIA AUDREY LINARDY
24090157	MELIANA BUDIMAN
24090165	CLADELLA OLGA MARGARETH MARANI
24090166	YANUARTI GAYANI
24100193	HENRY HENDRO SETYAWAN
24100195	RENDY HERDIAN PRAMONO
24100197	ALDI ADINATA OHMAR
62110001	CYNDO LUMEMPO
62110002	ODELIA LIVIA HENDRAWAN
62110005	SKOLASTIKA ADRIANA A
62110008	LUCKY KUSUMA PUTRA
62110015	MOZA ANDTER EUANGGELION K
62120004	DEVIANI SETYANTI
62120005	LAURENSIUS WINDY OCTANIO
62120007	CHRISTANTO ADI HERMAWAN
62120008	CAMILLA OKDRIANA DEWI
62120009	STELLA NOVIANI RAHARDJO
62120010	ANTONIUS ADE KURNIAWAN
62120013	ANDREAS ADIKA PRATAMA
62120016	CLAUDIO GIOVANNI
62120018	HANANYA ELNATHA PUTRA
62120020	SANDRA ASSUNCAO V. ALBERTO
62120021	ANGGER SATYA UTAMA
62120024	LI YUNI RUSLI
62120025	IKHSAN TOGATOROP
62130001	SADHU TADAKARA YANAPUTRA
62130002	KARUNA DEWI
62130003	THE YOELA MEIDIANA
62130004	WELLIANA DEWI
62130005	DESIANA FABIOLA
62130006	NOVIA PUTRIANJANI
62130008	YOHANES JULIAN PUTRA RAGIL
62130009	CHINTIA
62130010	DELVY BALALEMBANG
62130011	CLAUDIA NIKITA
62130012	WELLI PRASETYA
62130014	STEVEN SETIYA BUDI
62130015	DANANG TRI PANGGAYUH
62130016	DIONISIA CAESARNINGRUM
62130017	ERINNA SETIAWAN
62130018	REYNA DWI GLORIA GILI
62130019	YOSUA HARRY HANDOYO
62130021	CHLAUDIA CINDY THEREZA R
62130023	MAHAYU NIMAS CIPTA S
62140001	ASTRID YUSTIKA ARI UTAMA
62140002	ALFINA VELENSHIA
62140003	PUTRA PERSADA KRISTIAN
62140004	DIRGAHARI REPINO
62140005	YOGA BERI ANTONIUS
62140006	DOMMY TEMBRIANO
62140008	YULIANA WIJAYA
62140011	CLAUDYA APRILIA PEPIANA
62140013	REYNALDI
62140014	FINNE RIZKY SAPUTRA
62140015	YUDHA ANDI SATRIA
62140016	MARIA GRACIELLA SUBEKTI
62140017	RACHEL C SITUMORANG
62150001	VIORENTINO SANTOS
62150002	RONALDO PRATAMA WIJAYA
62150005	DONNY DEODATUS
62150006	Y AVEN SANDY
62150008	FRANS LOVIGA SURBAKTI
62150009	MAHENDRA ANANG SETYAWAN
62150010	MUTIA SEPTIANY
62150011	JHONATHANAEL PARNINGOTAN P
62160001	NOVIA ADITYA MANDALA
62160002	BINTANG HENRI TRIJAYA
62160003	LEONARDO MARCELLINO
62160004	AMELIA ANGELIKA
62160005	CINTHIA SETIAWATI
62160006	GABRIELLA NADYA ANGGIA
62160007	MEIRANTIANO META YIWA
62160008	OLIVIA ERWIMA
62160009	MORADITA APRILIZA SIMANJUNTAK
62160010	RAKA SALENDRA HARIAWAN
62160011	EVELIA CHRISTINA SUMARTONO
62160012	ELANG SAKRA ABIMANTARA
62160013	ADY MOSES PUTRA WUNGUBELEN
62160014	ANDREAS ADNA PURWANDA PUTRA
62160015	CINDY GITA CLARITY
62160016	GILANG DIASMARA
62160017	YOSUA YOHANES DE BRITO
62160018	FIRDARUMA REJINA ALMANIS
62160019	TERESIA DESTYA IKA L
62160020	FENICIA
62160021	KEVIN MAHENDRA
62160022	DICKY ARIA SETIABUDI
62160023	EKHSEL WINI VALERIE
62160024	MICHAEL MATTHEW SAGITO
62160025	ALBERTUS HENDRA DEWANGGA
62160026	ANGEL HARVEYLANDIA
62160027	ARRYA KUSUMA TRI PUTRA P.
62160028	HERKI UTAMA P SATU
62160029	NATALISA ALPHA PUTRI
